{
    "page": 1,
    "total_results": 6860,
    "total_pages": 343,
    "results": [
        {
            "popularity": 18.695,
            "vote_count": 2198,
            "video": false,
            "poster_path": "/2CAL2433ZeIihfX1Hb2139CX0pW.jpg",
            "id": 19404,
            "adult": false,
            "backdrop_path": "/pVGzV02qmHVoKx9ehBNy7m2u5fs.jpg",
            "original_language": "hi",
            "original_title": "दिलवाले दुल्हनिया ले जायेंगे",
            "genre_ids": [35, 18, 10749],
            "title": "Dilwale Dulhania Le Jayenge",
            "vote_average": 8.8,
            "overview": "Raj is a rich, carefree, happy-go-lucky second generation NRI. Simran is the daughter of Chaudhary Baldev Singh, who in spite of being an NRI is very strict about adherence to Indian values. Simran has left for India to be married to her childhood fiancé. Raj leaves for India with a mission at his hands, to claim his lady love under the noses of her whole family. Thus begins a saga.",
            "release_date": "1995-10-20"
        },
        {
            "popularity": 29.284,
            "vote_count": 14804,
            "video": false,
            "poster_path": "/9O7gLzmreU0nGkIB6K3BsJbzvNv.jpg",
            "id": 278,
            "adult": false,
            "backdrop_path": "/65nAfGikljrOkfIrcfmrNTJTAXF.jpg",
            "original_language": "en",
            "original_title": "The Shawshank Redemption",
            "genre_ids": [80, 18],
            "title": "The Shawshank Redemption",
            "vote_average": 8.7,
            "overview": "Framed in the 1940s for the double murder of his wife and her lover, upstanding banker Andy Dufresne begins a new life at the Shawshank prison, where he puts his accounting skills to work for an amoral warden. During his long stretch in prison, Dufresne comes to be admired by the other inmates -- including an older prisoner named Red -- for his integrity and unquenchable sense of hope.",
            "release_date": "1994-09-23"
        },
        {
            "popularity": 28.101,
            "id": 238,
            "video": false,
            "vote_count": 11324,
            "vote_average": 8.6,
            "title": "The Godfather",
            "release_date": "1972-03-14",
            "original_language": "en",
            "original_title": "The Godfather",
            "genre_ids": [18, 80],
            "backdrop_path": "/6xKCYgH16UuwEGAyroLU6p8HLIn.jpg",
            "adult": false,
            "overview": "Spanning the years 1945 to 1955, a chronicle of the fictional Italian-American Corleone crime family. When organized crime family patriarch, Vito Corleone barely survives an attempt on his life, his youngest son, Michael steps in to take care of the would-be killers, launching a campaign of bloody revenge.",
            "poster_path": "/rPdtLWNsZmAtoZl9PK7S2wE3qiS.jpg"
        },
        {
            "popularity": 91.354,
            "vote_count": 2937,
            "video": false,
            "poster_path": "/7IiTTgloJzvGI1TAYymCfbfl3vT.jpg",
            "id": 496243,
            "adult": false,
            "backdrop_path": "/TU9NIjwzjoKPwQHoHshkFcQUCG.jpg",
            "original_language": "ko",
            "original_title": "기생충",
            "genre_ids": [35, 18, 53],
            "title": "Parasite",
            "vote_average": 8.6,
            "overview": "All unemployed, Ki-taek's family takes peculiar interest in the wealthy and glamorous Parks for their livelihood until they get entangled in an unexpected incident.",
            "release_date": "2019-05-30"
        },
        {
            "popularity": 35.624,
            "id": 424,
            "video": false,
            "vote_count": 9036,
            "vote_average": 8.6,
            "title": "Schindler's List",
            "release_date": "1993-11-30",
            "original_language": "en",
            "original_title": "Schindler's List",
            "genre_ids": [18, 36, 10752],
            "backdrop_path": "/cTNYRUTXkBgPH3wP3kmPUB5U6dA.jpg",
            "adult": false,
            "overview": "The true story of how businessman Oskar Schindler saved over a thousand Jewish lives from the Nazis while they worked as slaves in his factory during World War II.",
            "poster_path": "/yPisjyLweCl1tbgwgtzBCNCBle.jpg"
        },
        {
            "popularity": 19.057,
            "vote_count": 6664,
            "video": false,
            "poster_path": "/bVq65huQ8vHDd1a4Z37QtuyEvpA.jpg",
            "id": 240,
            "adult": false,
            "backdrop_path": "/gLbBRyS7MBrmVUNce91Hmx9vzqI.jpg",
            "original_language": "en",
            "original_title": "The Godfather: Part II",
            "genre_ids": [80, 18],
            "title": "The Godfather: Part II",
            "vote_average": 8.5,
            "overview": "In the continuing saga of the Corleone crime family, a young Vito Corleone grows up in Sicily and in 1910s New York. In the 1950s, Michael Corleone attempts to expand the family business into Las Vegas, Hollywood and Cuba.",
            "release_date": "1974-12-20"
        },
        {
            "popularity": 29.448,
            "vote_count": 4906,
            "video": false,
            "poster_path": "/xq1Ugd62d23K2knRUx6xxuALTZB.jpg",
            "id": 372058,
            "adult": false,
            "backdrop_path": "/7OMAfDJikBxItZBIug0NJig5DHD.jpg",
            "original_language": "ja",
            "original_title": "君の名は。",
            "genre_ids": [16, 18, 10749],
            "title": "Your Name.",
            "vote_average": 8.5,
            "overview": "High schoolers Mitsuha and Taki are complete strangers living separate lives. But one night, they suddenly switch places. Mitsuha wakes up in Taki’s body, and he in hers. This bizarre occurrence continues to happen randomly, and the two must adjust their lives around each other.",
            "release_date": "2016-08-26"
        },
        {
            "popularity": 25.593,
            "vote_count": 8390,
            "video": false,
            "poster_path": "/oRvMaJOmapypFUcQqpgHMZA6qL9.jpg",
            "id": 129,
            "adult": false,
            "backdrop_path": "/mnpRKVSXBX6jb56nabvmGKA0Wig.jpg",
            "original_language": "ja",
            "original_title": "千と千尋の神隠し",
            "genre_ids": [16, 14, 10751],
            "title": "Spirited Away",
            "vote_average": 8.5,
            "overview": "A young girl, Chihiro, becomes trapped in a strange new world of spirits. When her parents undergo a mysterious transformation, she must call upon the courage she never knew she had to free her family.",
            "release_date": "2001-07-20"
        },
        {
            "popularity": 25.486,
            "vote_count": 9358,
            "video": false,
            "poster_path": "/sOHqdY1RnSn6kcfAHKu28jvTebE.jpg",
            "id": 497,
            "adult": false,
            "backdrop_path": "/Rlt20sEbOQKPVjia7lUilFm49W.jpg",
            "original_language": "en",
            "original_title": "The Green Mile",
            "genre_ids": [80, 18, 14],
            "title": "The Green Mile",
            "vote_average": 8.5,
            "overview": "A supernatural tale set on death row in a Southern prison, where gentle giant John Coffey possesses the mysterious power to heal people's ailments. When the cell block's head guard, Paul Edgecomb, recognizes Coffey's miraculous gift, he tries desperately to help stave off the condemned man's execution.",
            "release_date": "1999-12-10"
        },
        {
            "popularity": 21.4,
            "vote_count": 8116,
            "video": false,
            "poster_path": "/f7DImXDebOs148U4uPjI61iDvaK.jpg",
            "id": 637,
            "adult": false,
            "backdrop_path": "/bORe0eI72D874TMawOOFvqWS6Xe.jpg",
            "original_language": "it",
            "original_title": "La vita è bella",
            "genre_ids": [35, 18],
            "title": "Life Is Beautiful",
            "vote_average": 8.5,
            "overview": "A touching story of an Italian book seller of Jewish ancestry who lives in his own little fairy tale. His creative and happy life would come to an abrupt halt when his entire family is deported to a concentration camp during World War II. While locked up he tries to convince his son that the whole thing is just a game.",
            "release_date": "1997-12-20"
        },
        {
            "popularity": 29.846,
            "vote_count": 17288,
            "video": false,
            "poster_path": "/d5iIlFn5s0ImszYzBPb8JPIfbXD.jpg",
            "id": 680,
            "adult": false,
            "backdrop_path": "/suaEOtk1N1sgg2MTM7oZd2cfVp3.jpg",
            "original_language": "en",
            "original_title": "Pulp Fiction",
            "genre_ids": [80, 53],
            "title": "Pulp Fiction",
            "vote_average": 8.5,
            "overview": "A burger-loving hit man, his philosophical partner, a drug-addled gangster's moll and a washed-up boxer converge in this sprawling, comedic crime caper. Their adventures unfurl in three stories that ingeniously trip back and forth in time.",
            "release_date": "1994-09-10"
        },
        {
            "popularity": 17.425,
            "vote_count": 2611,
            "video": false,
            "poster_path": "/x733R4ISI0RbKeHhVkXdTMFmTFr.jpg",
            "id": 311,
            "adult": false,
            "backdrop_path": "/vnT6HzjLSDrAweHn9xWykb8Ii6T.jpg",
            "original_language": "en",
            "original_title": "Once Upon a Time in America",
            "genre_ids": [80, 18],
            "title": "Once Upon a Time in America",
            "vote_average": 8.4,
            "overview": "A former Prohibition-era Jewish gangster returns to the Lower East Side of Manhattan over thirty years later, where he once again must confront the ghosts and regrets of his old life.",
            "release_date": "1984-05-23"
        },
        {
            "popularity": 30.418,
            "vote_count": 16672,
            "video": false,
            "poster_path": "/yE5d3BUhE8hCnkMUJOo1QDoOGNz.jpg",
            "id": 13,
            "adult": false,
            "backdrop_path": "/wMgbnUVS9wbRGAdki8fqxKU1O0N.jpg",
            "original_language": "en",
            "original_title": "Forrest Gump",
            "genre_ids": [35, 18, 10749],
            "title": "Forrest Gump",
            "vote_average": 8.4,
            "overview": "A man with a low IQ has accomplished great things in his life and been present during significant historic events—in each case, far exceeding what anyone imagined he could do. But despite all he has achieved, his one true love eludes him.",
            "release_date": "1994-07-06"
        },
        {
            "popularity": 38.134,
            "vote_count": 20835,
            "video": false,
            "poster_path": "/pKKvCaL1TPTVtbI6EeliyND3api.jpg",
            "id": 155,
            "adult": false,
            "backdrop_path": "/hqkIcbrOHL86UncnHIsHVcVmzue.jpg",
            "original_language": "en",
            "original_title": "The Dark Knight",
            "genre_ids": [28, 80, 18, 53],
            "title": "The Dark Knight",
            "vote_average": 8.4,
            "overview": "Batman raises the stakes in his war on crime. With the help of Lt. Jim Gordon and District Attorney Harvey Dent, Batman sets out to dismantle the remaining criminal organizations that plague the streets. The partnership proves to be effective, but they soon find themselves prey to a reign of chaos unleashed by a rising criminal mastermind known to the terrified citizens of Gotham as the Joker.",
            "release_date": "2008-07-16"
        },
        {
            "popularity": 32.841,
            "vote_count": 14537,
            "video": false,
            "poster_path": "/rCzpDGLbOoPwLjy3OAm5NUPOTrC.jpg",
            "id": 122,
            "adult": false,
            "backdrop_path": "/8BPZO0Bf8TeAy8znF43z8soK3ys.jpg",
            "original_language": "en",
            "original_title": "The Lord of the Rings: The Return of the King",
            "genre_ids": [28, 12, 14],
            "title": "The Lord of the Rings: The Return of the King",
            "vote_average": 8.4,
            "overview": "Aragorn is revealed as the heir to the ancient kings as he, Gandalf and the other members of the broken fellowship struggle to save Gondor from Sauron's forces. Meanwhile, Frodo and Sam take the ring closer to the heart of Mordor, the dark lord's realm.",
            "release_date": "2003-12-01"
        },
        {
            "popularity": 18.212,
            "vote_count": 1693,
            "video": false,
            "poster_path": "/v6xrz4fr92KY1oNC3HsEvrsvR1n.jpg",
            "id": 346,
            "adult": false,
            "backdrop_path": "/61vLiK96sbXeHpQiMxI4CuqBA3z.jpg",
            "original_language": "ja",
            "original_title": "七人の侍",
            "genre_ids": [28, 18],
            "title": "Seven Samurai",
            "vote_average": 8.4,
            "overview": "A samurai answers a village's request for protection after he falls on hard times. The town needs protection from bandits, so the samurai gathers six others to help him teach the people how to defend themselves, and the villagers provide the soldiers with food. A giant battle occurs when 40 bandits attack the village.",
            "release_date": "1954-04-26"
        },
        {
            "popularity": 19.498,
            "vote_count": 4290,
            "video": false,
            "poster_path": "/3W0v956XxSG5xgm7LB6qu8ExYJ2.jpg",
            "id": 389,
            "adult": false,
            "backdrop_path": "/lH2Ga8OzjU1XlxJ73shOlPx6cRw.jpg",
            "original_language": "en",
            "original_title": "12 Angry Men",
            "genre_ids": [18],
            "title": "12 Angry Men",
            "vote_average": 8.4,
            "overview": "The defense and the prosecution have rested and the jury is filing into the jury room to decide if a young Spanish-American is guilty or innocent of murdering his father. What begins as an open and shut case soon becomes a mini-drama of each of the jurors' prejudices and preconceptions about the trial, the accused, and each other.",
            "release_date": "1957-04-10"
        },
        {
            "popularity": 22.378,
            "id": 769,
            "video": false,
            "vote_count": 6588,
            "vote_average": 8.4,
            "title": "GoodFellas",
            "release_date": "1990-09-12",
            "original_language": "en",
            "original_title": "GoodFellas",
            "genre_ids": [18, 80],
            "backdrop_path": "/sw7mordbZxgITU877yTpZCud90M.jpg",
            "adult": false,
            "overview": "The true story of Henry Hill, a half-Irish, half-Sicilian Brooklyn kid who is adopted by neighbourhood gangsters at an early age and climbs the ranks of a Mafia family under the guidance of Jimmy Conway.",
            "poster_path": "/pwpGfTImTGifEGgLb3s6LRPd4I6.jpg"
        },
        {
            "popularity": 20.788,
            "vote_count": 4608,
            "video": false,
            "poster_path": "/wfPHdfofBD5PN96dV96a51B3Ja2.jpg",
            "id": 429,
            "adult": false,
            "backdrop_path": "/xGC2fY5KFmtuXnsuQwYQKFOLZFy.jpg",
            "original_language": "it",
            "original_title": "Il buono, il brutto, il cattivo",
            "genre_ids": [37],
            "title": "The Good, the Bad and the Ugly",
            "vote_average": 8.4,
            "overview": "While the Civil War rages between the Union and the Confederacy, three men – a quiet loner, a ruthless hit man and a Mexican bandit – comb the American Southwest in search of a strongbox containing $200,000 in stolen gold.",
            "release_date": "1966-12-23"
        },
        {
            "popularity": 8.934,
            "vote_count": 549,
            "video": false,
            "poster_path": "/m8eFedsS7vQCZCS8WGp5n1bVD0q.jpg",
            "id": 40096,
            "adult": false,
            "backdrop_path": "/alQqTpmEkxSLgajfEYTsTH6nAKB.jpg",
            "original_language": "pt",
            "original_title": "O Auto da Compadecida",
            "genre_ids": [12, 35],
            "title": "A Dog's Will",
            "vote_average": 8.4,
            "overview": "The lively João Grilo and the sly Chicó are poor guys living in the hinterland who cheat a bunch of people in a small Northeast Brazil town. But when they die, they have to be judged by Christ, the Devil and the Virgin Mary, before they are admitted to paradise.",
            "release_date": "2000-09-15"
        }
    ]
}
